%YAML 1.1
%TAG !u! tag:unity3d.com,2011:
--- !u!29 &1
OcclusionCullingSettings:
  m_ObjectHideFlags: 0
  serializedVersion: 2
  m_OcclusionBakeSettings:
    smallestOccluder: 5
    smallestHole: 0.25
    backfaceThreshold: 100
  m_SceneGUID: 00000000000000000000000000000000
  m_OcclusionCullingData: {fileID: 0}
--- !u!104 &2
RenderSettings:
  m_ObjectHideFlags: 0
  serializedVersion: 8
  m_Fog: 0
  m_FogColor: {r: 0.5, g: 0.5, b: 0.5, a: 1}
  m_FogMode: 3
  m_FogDensity: 0.01
  m_LinearFogStart: 0
  m_LinearFogEnd: 300
  m_AmbientSkyColor: {r: 0.212, g: 0.227, b: 0.259, a: 1}
  m_AmbientEquatorColor: {r: 0.114, g: 0.125, b: 0.133, a: 1}
  m_AmbientGroundColor: {r: 0.047, g: 0.043, b: 0.035, a: 1}
  m_AmbientIntensity: 3
  m_AmbientMode: 0
  m_SubtractiveShadowColor: {r: 0.42, g: 0.478, b: 0.627, a: 1}
  m_SkyboxMaterial: {fileID: 10304, guid: 0000000000000000f000000000000000, type: 0}
  m_HaloStrength: 0.5
  m_FlareStrength: 1
  m_FlareFadeSpeed: 3
  m_HaloTexture: {fileID: 0}
  m_SpotCookie: {fileID: 10001, guid: 0000000000000000e000000000000000, type: 0}
  m_DefaultReflectionMode: 0
  m_DefaultReflectionResolution: 128
  m_ReflectionBounces: 1
  m_ReflectionIntensity: 1
  m_CustomReflection: {fileID: 0}
  m_Sun: {fileID: 0}
  m_IndirectSpecularColor: {r: 0.37312013, g: 0.3807403, b: 0.35872707, a: 1}
--- !u!157 &3
LightmapSettings:
  m_ObjectHideFlags: 0
  serializedVersion: 11
  m_GIWorkflowMode: 0
  m_GISettings:
    serializedVersion: 2
    m_BounceScale: 1
    m_IndirectOutputScale: 1
    m_AlbedoBoost: 1
    m_TemporalCoherenceThreshold: 1
    m_EnvironmentLightingMode: 0
    m_EnableBakedLightmaps: 1
    m_EnableRealtimeLightmaps: 1
  m_LightmapEditorSettings:
    serializedVersion: 9
    m_Resolution: 2
    m_BakeResolution: 40
    m_TextureWidth: 1024
    m_TextureHeight: 1024
    m_AO: 0
    m_AOMaxDistance: 1
    m_CompAOExponent: 1
    m_CompAOExponentDirect: 0
    m_Padding: 2
    m_LightmapParameters: {fileID: 0}
    m_LightmapsBakeMode: 1
    m_TextureCompression: 1
    m_FinalGather: 0
    m_FinalGatherFiltering: 1
    m_FinalGatherRayCount: 256
    m_ReflectionCompression: 2
    m_MixedBakeMode: 2
    m_BakeBackend: 0
    m_PVRSampling: 1
    m_PVRDirectSampleCount: 32
    m_PVRSampleCount: 500
    m_PVRBounces: 2
    m_PVRFilterTypeDirect: 0
    m_PVRFilterTypeIndirect: 0
    m_PVRFilterTypeAO: 0
    m_PVRFilteringMode: 1
    m_PVRCulling: 1
    m_PVRFilteringGaussRadiusDirect: 1
    m_PVRFilteringGaussRadiusIndirect: 5
    m_PVRFilteringGaussRadiusAO: 2
    m_PVRFilteringAtrousPositionSigmaDirect: 0.5
    m_PVRFilteringAtrousPositionSigmaIndirect: 2
    m_PVRFilteringAtrousPositionSigmaAO: 1
  m_LightingDataAsset: {fileID: 0}
  m_UseShadowmask: 1
--- !u!196 &4
NavMeshSettings:
  serializedVersion: 2
  m_ObjectHideFlags: 0
  m_BuildSettings:
    serializedVersion: 2
    agentTypeID: 0
    agentRadius: 0.5
    agentHeight: 2
    agentSlope: 45
    agentClimb: 0.4
    ledgeDropHeight: 0
    maxJumpAcrossDistance: 0
    minRegionArea: 2
    manualCellSize: 0
    cellSize: 0.16666667
    manualTileSize: 0
    tileSize: 256
    accuratePlacement: 0
    debug:
      m_Flags: 0
  m_NavMeshData: {fileID: 0}
--- !u!1001 &596594802
Prefab:
  m_ObjectHideFlags: 0
  serializedVersion: 2
  m_Modification:
    m_TransformParent: {fileID: 0}
    m_Modifications:
    - target: {fileID: 400000, guid: b68ed5a2231514dc4a8d366337c5abeb, type: 3}
      propertyPath: m_LocalPosition.x
      value: 0
      objectReference: {fileID: 0}
    - target: {fileID: 400000, guid: b68ed5a2231514dc4a8d366337c5abeb, type: 3}
      propertyPath: m_LocalPosition.y
      value: 0
      objectReference: {fileID: 0}
    - target: {fileID: 400000, guid: b68ed5a2231514dc4a8d366337c5abeb, type: 3}
      propertyPath: m_LocalPosition.z
      value: 0
      objectReference: {fileID: 0}
    - target: {fileID: 400000, guid: b68ed5a2231514dc4a8d366337c5abeb, type: 3}
      propertyPath: m_LocalRotation.x
      value: 0
      objectReference: {fileID: 0}
    - target: {fileID: 400000, guid: b68ed5a2231514dc4a8d366337c5abeb, type: 3}
      propertyPath: m_LocalRotation.y
      value: 0
      objectReference: {fileID: 0}
    - target: {fileID: 400000, guid: b68ed5a2231514dc4a8d366337c5abeb, type: 3}
      propertyPath: m_LocalRotation.z
      value: 0
      objectReference: {fileID: 0}
    - target: {fileID: 400000, guid: b68ed5a2231514dc4a8d366337c5abeb, type: 3}
      propertyPath: m_LocalRotation.w
      value: 1
      objectReference: {fileID: 0}
    - target: {fileID: 400000, guid: b68ed5a2231514dc4a8d366337c5abeb, type: 3}
      propertyPath: m_RootOrder
      value: 2
      objectReference: {fileID: 0}
    - target: {fileID: 400000, guid: b68ed5a2231514dc4a8d366337c5abeb, type: 3}
      propertyPath: m_LocalScale.x
      value: -10
      objectReference: {fileID: 0}
    - target: {fileID: 400000, guid: b68ed5a2231514dc4a8d366337c5abeb, type: 3}
      propertyPath: m_LocalScale.y
      value: 10
      objectReference: {fileID: 0}
    - target: {fileID: 400000, guid: b68ed5a2231514dc4a8d366337c5abeb, type: 3}
      propertyPath: m_LocalScale.z
      value: 10
      objectReference: {fileID: 0}
    - target: {fileID: 100000, guid: b68ed5a2231514dc4a8d366337c5abeb, type: 3}
      propertyPath: m_Name
      value: SPA_LEFT
      objectReference: {fileID: 0}
    - target: {fileID: 100000, guid: b68ed5a2231514dc4a8d366337c5abeb, type: 3}
      propertyPath: m_Layer
      value: 8
      objectReference: {fileID: 0}
    - target: {fileID: 2300000, guid: b68ed5a2231514dc4a8d366337c5abeb, type: 3}
      propertyPath: m_Materials.Array.data[0]
      value: 
      objectReference: {fileID: 2100000, guid: 61487b86d46374e39b068ceab5811314, type: 2}
    m_RemovedComponents: []
  m_ParentPrefab: {fileID: 100100000, guid: b68ed5a2231514dc4a8d366337c5abeb, type: 3}
  m_IsPrefabParent: 0
--- !u!1001 &714583521
Prefab:
  m_ObjectHideFlags: 0
  serializedVersion: 2
  m_Modification:
    m_TransformParent: {fileID: 0}
    m_Modifications:
    - target: {fileID: 400000, guid: b68ed5a2231514dc4a8d366337c5abeb, type: 3}
      propertyPath: m_LocalPosition.x
      value: 0
      objectReference: {fileID: 0}
    - target: {fileID: 400000, guid: b68ed5a2231514dc4a8d366337c5abeb, type: 3}
      propertyPath: m_LocalPosition.y
      value: 0
      objectReference: {fileID: 0}
    - target: {fileID: 400000, guid: b68ed5a2231514dc4a8d366337c5abeb, type: 3}
      propertyPath: m_LocalPosition.z
      value: 0
      objectReference: {fileID: 0}
    - target: {fileID: 400000, guid: b68ed5a2231514dc4a8d366337c5abeb, type: 3}
      propertyPath: m_LocalRotation.x
      value: 0
      objectReference: {fileID: 0}
    - target: {fileID: 400000, guid: b68ed5a2231514dc4a8d366337c5abeb, type: 3}
      propertyPath: m_LocalRotation.y
      value: 0
      objectReference: {fileID: 0}
    - target: {fileID: 400000, guid: b68ed5a2231514dc4a8d366337c5abeb, type: 3}
      propertyPath: m_LocalRotation.z
      value: 0
      objectReference: {fileID: 0}
    - target: {fileID: 400000, guid: b68ed5a2231514dc4a8d366337c5abeb, type: 3}
      propertyPath: m_LocalRotation.w
      value: 1
      objectReference: {fileID: 0}
    - target: {fileID: 400000, guid: b68ed5a2231514dc4a8d366337c5abeb, type: 3}
      propertyPath: m_RootOrder
      value: 3
      objectReference: {fileID: 0}
    - target: {fileID: 400000, guid: b68ed5a2231514dc4a8d366337c5abeb, type: 3}
      propertyPath: m_LocalScale.x
      value: -10
      objectReference: {fileID: 0}
    - target: {fileID: 400000, guid: b68ed5a2231514dc4a8d366337c5abeb, type: 3}
      propertyPath: m_LocalScale.y
      value: 10
      objectReference: {fileID: 0}
    - target: {fileID: 400000, guid: b68ed5a2231514dc4a8d366337c5abeb, type: 3}
      propertyPath: m_LocalScale.z
      value: 10
      objectReference: {fileID: 0}
    - target: {fileID: 100000, guid: b68ed5a2231514dc4a8d366337c5abeb, type: 3}
      propertyPath: m_Name
      value: SPA_RIGHT
      objectReference: {fileID: 0}
    - target: {fileID: 100000, guid: b68ed5a2231514dc4a8d366337c5abeb, type: 3}
      propertyPath: m_Layer
      value: 9
      objectReference: {fileID: 0}
    - target: {fileID: 2300000, guid: b68ed5a2231514dc4a8d366337c5abeb, type: 3}
      propertyPath: m_Materials.Array.data[0]
      value: 
      objectReference: {fileID: 2100000, guid: e1732c892d9f04e5dab32fa1b052d66f, type: 2}
    m_RemovedComponents: []
  m_ParentPrefab: {fileID: 100100000, guid: b68ed5a2231514dc4a8d366337c5abeb, type: 3}
  m_IsPrefabParent: 0
--- !u!1001 &846384623
Prefab:
  m_ObjectHideFlags: 0
  serializedVersion: 2
  m_Modification:
    m_TransformParent: {fileID: 0}
    m_Modifications:
    - target: {fileID: 4076446774247396, guid: ba3d46ce3c4234dcf9c98476fc6cb1d9, type: 2}
      propertyPath: m_LocalPosition.x
      value: -1.2665707
      objectReference: {fileID: 0}
    - target: {fileID: 4076446774247396, guid: ba3d46ce3c4234dcf9c98476fc6cb1d9, type: 2}
      propertyPath: m_LocalPosition.y
      value: 0.45778036
      objectReference: {fileID: 0}
    - target: {fileID: 4076446774247396, guid: ba3d46ce3c4234dcf9c98476fc6cb1d9, type: 2}
      propertyPath: m_LocalPosition.z
      value: 6.0802555
      objectReference: {fileID: 0}
    - target: {fileID: 4076446774247396, guid: ba3d46ce3c4234dcf9c98476fc6cb1d9, type: 2}
      propertyPath: m_LocalRotation.x
      value: 0
      objectReference: {fileID: 0}
    - target: {fileID: 4076446774247396, guid: ba3d46ce3c4234dcf9c98476fc6cb1d9, type: 2}
      propertyPath: m_LocalRotation.y
      value: 0
      objectReference: {fileID: 0}
    - target: {fileID: 4076446774247396, guid: ba3d46ce3c4234dcf9c98476fc6cb1d9, type: 2}
      propertyPath: m_LocalRotation.z
      value: 0
      objectReference: {fileID: 0}
    - target: {fileID: 4076446774247396, guid: ba3d46ce3c4234dcf9c98476fc6cb1d9, type: 2}
      propertyPath: m_LocalRotation.w
      value: 1
      objectReference: {fileID: 0}
    - target: {fileID: 4076446774247396, guid: ba3d46ce3c4234dcf9c98476fc6cb1d9, type: 2}
      propertyPath: m_RootOrder
      value: 1
      objectReference: {fileID: 0}
    m_RemovedComponents: []
  m_ParentPrefab: {fileID: 100100000, guid: ba3d46ce3c4234dcf9c98476fc6cb1d9, type: 2}
  m_IsPrefabParent: 0
--- !u!1001 &851934365
Prefab:
  m_ObjectHideFlags: 0
  serializedVersion: 2
  m_Modification:
    m_TransformParent: {fileID: 0}
    m_Modifications:
    - target: {fileID: 224144755641972514, guid: 8d0a3c5080f204248ab2506d239c7102,
        type: 2}
      propertyPath: m_RootOrder
      value: 4
      objectReference: {fileID: 0}
    - target: {fileID: 224144755641972514, guid: 8d0a3c5080f204248ab2506d239c7102,
        type: 2}
      propertyPath: m_LocalPosition.x
      value: -7.8999996
      objectReference: {fileID: 0}
    - target: {fileID: 224144755641972514, guid: 8d0a3c5080f204248ab2506d239c7102,
        type: 2}
      propertyPath: m_LocalPosition.y
      value: -4.199999
      objectReference: {fileID: 0}
    - target: {fileID: 224144755641972514, guid: 8d0a3c5080f204248ab2506d239c7102,
        type: 2}
      propertyPath: m_LocalPosition.z
      value: -86
      objectReference: {fileID: 0}
    - target: {fileID: 224144755641972514, guid: 8d0a3c5080f204248ab2506d239c7102,
        type: 2}
      propertyPath: m_LocalRotation.x
      value: 0
      objectReference: {fileID: 0}
    - target: {fileID: 224144755641972514, guid: 8d0a3c5080f204248ab2506d239c7102,
        type: 2}
      propertyPath: m_LocalRotation.y
      value: 1
      objectReference: {fileID: 0}
    - target: {fileID: 224144755641972514, guid: 8d0a3c5080f204248ab2506d239c7102,
        type: 2}
      propertyPath: m_LocalRotation.z
      value: 0
      objectReference: {fileID: 0}
    - target: {fileID: 224144755641972514, guid: 8d0a3c5080f204248ab2506d239c7102,
        type: 2}
      propertyPath: m_LocalRotation.w
      value: 0
      objectReference: {fileID: 0}
    - target: {fileID: 224144755641972514, guid: 8d0a3c5080f204248ab2506d239c7102,
        type: 2}
      propertyPath: m_RootOrder
      value: 4
      objectReference: {fileID: 0}
    - target: {fileID: 224144755641972514, guid: 8d0a3c5080f204248ab2506d239c7102,
        type: 2}
      propertyPath: m_AnchoredPosition.x
      value: -7.9
      objectReference: {fileID: 0}
    - target: {fileID: 224144755641972514, guid: 8d0a3c5080f204248ab2506d239c7102,
        type: 2}
      propertyPath: m_AnchoredPosition.y
      value: -4.2
      objectReference: {fileID: 0}
    - target: {fileID: 224144755641972514, guid: 8d0a3c5080f204248ab2506d239c7102,
        type: 2}
      propertyPath: m_SizeDelta.x
      value: 25.73
      objectReference: {fileID: 0}
    - target: {fileID: 224144755641972514, guid: 8d0a3c5080f204248ab2506d239c7102,
        type: 2}
      propertyPath: m_SizeDelta.y
      value: 25.73
      objectReference: {fileID: 0}
    - target: {fileID: 224144755641972514, guid: 8d0a3c5080f204248ab2506d239c7102,
        type: 2}
      propertyPath: m_AnchorMin.x
      value: 0.5
      objectReference: {fileID: 0}
    - target: {fileID: 224144755641972514, guid: 8d0a3c5080f204248ab2506d239c7102,
        type: 2}
      propertyPath: m_AnchorMin.y
      value: 0.5
      objectReference: {fileID: 0}
    - target: {fileID: 224144755641972514, guid: 8d0a3c5080f204248ab2506d239c7102,
        type: 2}
      propertyPath: m_AnchorMax.x
      value: 0.5
      objectReference: {fileID: 0}
    - target: {fileID: 224144755641972514, guid: 8d0a3c5080f204248ab2506d239c7102,
        type: 2}
      propertyPath: m_AnchorMax.y
      value: 0.5
      objectReference: {fileID: 0}
    - target: {fileID: 224144755641972514, guid: 8d0a3c5080f204248ab2506d239c7102,
        type: 2}
      propertyPath: m_Pivot.x
      value: 0.5
      objectReference: {fileID: 0}
    - target: {fileID: 224144755641972514, guid: 8d0a3c5080f204248ab2506d239c7102,
        type: 2}
      propertyPath: m_Pivot.y
      value: 0.5
      objectReference: {fileID: 0}
    - target: {fileID: 224144755641972514, guid: 8d0a3c5080f204248ab2506d239c7102,
        type: 2}
      propertyPath: m_LocalEulerAnglesHint.x
      value: 0
      objectReference: {fileID: 0}
    - target: {fileID: 224144755641972514, guid: 8d0a3c5080f204248ab2506d239c7102,
        type: 2}
      propertyPath: m_LocalEulerAnglesHint.y
      value: 180
      objectReference: {fileID: 0}
    - target: {fileID: 224144755641972514, guid: 8d0a3c5080f204248ab2506d239c7102,
        type: 2}
      propertyPath: m_LocalScale.x
      value: 0.56000006
      objectReference: {fileID: 0}
    - target: {fileID: 224144755641972514, guid: 8d0a3c5080f204248ab2506d239c7102,
        type: 2}
      propertyPath: m_LocalScale.y
      value: 0.5600001
      objectReference: {fileID: 0}
    - target: {fileID: 224144755641972514, guid: 8d0a3c5080f204248ab2506d239c7102,
        type: 2}
      propertyPath: m_LocalScale.z
      value: 0.5600001
      objectReference: {fileID: 0}
    - target: {fileID: 114995639152409472, guid: 8d0a3c5080f204248ab2506d239c7102,
        type: 2}
      propertyPath: m_FillAmount
      value: 0
      objectReference: {fileID: 0}
    m_RemovedComponents: []
  m_ParentPrefab: {fileID: 100100000, guid: 8d0a3c5080f204248ab2506d239c7102, type: 2}
  m_IsPrefabParent: 0
--- !u!1001 &863049633
Prefab:
  m_ObjectHideFlags: 0
  serializedVersion: 2
  m_Modification:
    m_TransformParent: {fileID: 0}
    m_Modifications:
    - target: {fileID: 4406339548706964, guid: e6543a49f598b47cb8381b884db5fc2e, type: 2}
      propertyPath: m_LocalPosition.x
      value: 0
      objectReference: {fileID: 0}
    - target: {fileID: 4406339548706964, guid: e6543a49f598b47cb8381b884db5fc2e, type: 2}
      propertyPath: m_LocalPosition.y
      value: 0
      objectReference: {fileID: 0}
    - target: {fileID: 4406339548706964, guid: e6543a49f598b47cb8381b884db5fc2e, type: 2}
      propertyPath: m_LocalPosition.z
      value: 0
      objectReference: {fileID: 0}
    - target: {fileID: 4406339548706964, guid: e6543a49f598b47cb8381b884db5fc2e, type: 2}
      propertyPath: m_LocalRotation.x
      value: 0
      objectReference: {fileID: 0}
    - target: {fileID: 4406339548706964, guid: e6543a49f598b47cb8381b884db5fc2e, type: 2}
      propertyPath: m_LocalRotation.y
      value: 0
      objectReference: {fileID: 0}
    - target: {fileID: 4406339548706964, guid: e6543a49f598b47cb8381b884db5fc2e, type: 2}
      propertyPath: m_LocalRotation.z
      value: 0
      objectReference: {fileID: 0}
    - target: {fileID: 4406339548706964, guid: e6543a49f598b47cb8381b884db5fc2e, type: 2}
      propertyPath: m_LocalRotation.w
      value: 1
      objectReference: {fileID: 0}
    - target: {fileID: 4406339548706964, guid: e6543a49f598b47cb8381b884db5fc2e, type: 2}
      propertyPath: m_RootOrder
      value: 0
      objectReference: {fileID: 0}
    m_RemovedComponents: []
  m_ParentPrefab: {fileID: 100100000, guid: e6543a49f598b47cb8381b884db5fc2e, type: 2}
  m_IsPrefabParent: 0
