%YAML 1.1
%TAG !u! tag:unity3d.com,2011:
--- !u!29 &1
OcclusionCullingSettings:
  m_ObjectHideFlags: 0
  serializedVersion: 2
  m_OcclusionBakeSettings:
    smallestOccluder: 5
    smallestHole: 0.25
    backfaceThreshold: 100
  m_SceneGUID: 00000000000000000000000000000000
  m_OcclusionCullingData: {fileID: 0}
--- !u!104 &2
RenderSettings:
  m_ObjectHideFlags: 0
  serializedVersion: 8
  m_Fog: 0
  m_FogColor: {r: 0.5, g: 0.5, b: 0.5, a: 1}
  m_FogMode: 3
  m_FogDensity: 0.01
  m_LinearFogStart: 0
  m_LinearFogEnd: 300
  m_AmbientSkyColor: {r: 0.212, g: 0.227, b: 0.259, a: 1}
  m_AmbientEquatorColor: {r: 0.114, g: 0.125, b: 0.133, a: 1}
  m_AmbientGroundColor: {r: 0.047, g: 0.043, b: 0.035, a: 1}
  m_AmbientIntensity: 3
  m_AmbientMode: 0
  m_SubtractiveShadowColor: {r: 0.42, g: 0.478, b: 0.627, a: 1}
  m_SkyboxMaterial: {fileID: 10304, guid: 0000000000000000f000000000000000, type: 0}
  m_HaloStrength: 0.5
  m_FlareStrength: 1
  m_FlareFadeSpeed: 3
  m_HaloTexture: {fileID: 0}
  m_SpotCookie: {fileID: 10001, guid: 0000000000000000e000000000000000, type: 0}
  m_DefaultReflectionMode: 0
  m_DefaultReflectionResolution: 128
  m_ReflectionBounces: 1
  m_ReflectionIntensity: 1
  m_CustomReflection: {fileID: 0}
  m_Sun: {fileID: 0}
  m_IndirectSpecularColor: {r: 0.37312013, g: 0.3807403, b: 0.35872707, a: 1}
--- !u!157 &3
LightmapSettings:
  m_ObjectHideFlags: 0
  serializedVersion: 11
  m_GIWorkflowMode: 0
  m_GISettings:
    serializedVersion: 2
    m_BounceScale: 1
    m_IndirectOutputScale: 1
    m_AlbedoBoost: 1
    m_TemporalCoherenceThreshold: 1
    m_EnvironmentLightingMode: 0
    m_EnableBakedLightmaps: 1
    m_EnableRealtimeLightmaps: 1
  m_LightmapEditorSettings:
    serializedVersion: 9
    m_Resolution: 2
    m_BakeResolution: 40
    m_TextureWidth: 1024
    m_TextureHeight: 1024
    m_AO: 0
    m_AOMaxDistance: 1
    m_CompAOExponent: 1
    m_CompAOExponentDirect: 0
    m_Padding: 2
    m_LightmapParameters: {fileID: 0}
    m_LightmapsBakeMode: 1
    m_TextureCompression: 1
    m_FinalGather: 0
    m_FinalGatherFiltering: 1
    m_FinalGatherRayCount: 256
    m_ReflectionCompression: 2
    m_MixedBakeMode: 2
    m_BakeBackend: 0
    m_PVRSampling: 1
    m_PVRDirectSampleCount: 32
    m_PVRSampleCount: 500
    m_PVRBounces: 2
    m_PVRFilterTypeDirect: 0
    m_PVRFilterTypeIndirect: 0
    m_PVRFilterTypeAO: 0
    m_PVRFilteringMode: 1
    m_PVRCulling: 1
    m_PVRFilteringGaussRadiusDirect: 1
    m_PVRFilteringGaussRadiusIndirect: 5
    m_PVRFilteringGaussRadiusAO: 2
    m_PVRFilteringAtrousPositionSigmaDirect: 0.5
    m_PVRFilteringAtrousPositionSigmaIndirect: 2
    m_PVRFilteringAtrousPositionSigmaAO: 1
  m_LightingDataAsset: {fileID: 0}
  m_UseShadowmask: 1
--- !u!196 &4
NavMeshSettings:
  serializedVersion: 2
  m_ObjectHideFlags: 0
  m_BuildSettings:
    serializedVersion: 2
    agentTypeID: 0
    agentRadius: 0.5
    agentHeight: 2
    agentSlope: 45
    agentClimb: 0.4
    ledgeDropHeight: 0
    maxJumpAcrossDistance: 0
    minRegionArea: 2
    manualCellSize: 0
    cellSize: 0.16666667
    manualTileSize: 0
    tileSize: 256
    accuratePlacement: 0
    debug:
      m_Flags: 0
  m_NavMeshData: {fileID: 0}
--- !u!1001 &97682451
Prefab:
  m_ObjectHideFlags: 0
  serializedVersion: 2
  m_Modification:
    m_TransformParent: {fileID: 0}
    m_Modifications:
    - target: {fileID: 400000, guid: 284db49ea7a664b18948c01d6f19b4ed, type: 3}
      propertyPath: m_LocalPosition.x
      value: -0
      objectReference: {fileID: 0}
    - target: {fileID: 400000, guid: 284db49ea7a664b18948c01d6f19b4ed, type: 3}
      propertyPath: m_LocalPosition.y
      value: 0
      objectReference: {fileID: 0}
    - target: {fileID: 400000, guid: 284db49ea7a664b18948c01d6f19b4ed, type: 3}
      propertyPath: m_LocalPosition.z
      value: 0
      objectReference: {fileID: 0}
    - target: {fileID: 400000, guid: 284db49ea7a664b18948c01d6f19b4ed, type: 3}
      propertyPath: m_LocalRotation.x
      value: 0
      objectReference: {fileID: 0}
    - target: {fileID: 400000, guid: 284db49ea7a664b18948c01d6f19b4ed, type: 3}
      propertyPath: m_LocalRotation.y
      value: -0
      objectReference: {fileID: 0}
    - target: {fileID: 400000, guid: 284db49ea7a664b18948c01d6f19b4ed, type: 3}
      propertyPath: m_LocalRotation.z
      value: -0
      objectReference: {fileID: 0}
    - target: {fileID: 400000, guid: 284db49ea7a664b18948c01d6f19b4ed, type: 3}
      propertyPath: m_LocalRotation.w
      value: 1
      objectReference: {fileID: 0}
    - target: {fileID: 400000, guid: 284db49ea7a664b18948c01d6f19b4ed, type: 3}
      propertyPath: m_RootOrder
      value: 5
      objectReference: {fileID: 0}
    - target: {fileID: 100000, guid: 284db49ea7a664b18948c01d6f19b4ed, type: 3}
      propertyPath: m_Name
      value: Expo_RIGHT
      objectReference: {fileID: 0}
    - target: {fileID: 2300002, guid: 284db49ea7a664b18948c01d6f19b4ed, type: 3}
      propertyPath: m_Materials.Array.data[0]
      value: 
      objectReference: {fileID: 2100000, guid: 0629ca3e0b7354d74bda18458397fad2, type: 2}
    - target: {fileID: 2300000, guid: 284db49ea7a664b18948c01d6f19b4ed, type: 3}
      propertyPath: m_Materials.Array.data[0]
      value: 
      objectReference: {fileID: 2100000, guid: 0629ca3e0b7354d74bda18458397fad2, type: 2}
    - target: {fileID: 100004, guid: 284db49ea7a664b18948c01d6f19b4ed, type: 3}
      propertyPath: m_Layer
      value: 9
      objectReference: {fileID: 0}
    - target: {fileID: 100002, guid: 284db49ea7a664b18948c01d6f19b4ed, type: 3}
      propertyPath: m_Layer
      value: 9
      objectReference: {fileID: 0}
    - target: {fileID: 100006, guid: 284db49ea7a664b18948c01d6f19b4ed, type: 3}
      propertyPath: m_Layer
      value: 9
      objectReference: {fileID: 0}
    - target: {fileID: 100000, guid: 284db49ea7a664b18948c01d6f19b4ed, type: 3}
      propertyPath: m_Layer
      value: 9
      objectReference: {fileID: 0}
    - target: {fileID: 100008, guid: 284db49ea7a664b18948c01d6f19b4ed, type: 3}
      propertyPath: m_Layer
      value: 9
      objectReference: {fileID: 0}
    - target: {fileID: 2300004, guid: 284db49ea7a664b18948c01d6f19b4ed, type: 3}
      propertyPath: m_Materials.Array.data[0]
      value: 
      objectReference: {fileID: 2100000, guid: 73f704906c15b412e80a7925b1fc1bc7, type: 2}
    m_RemovedComponents: []
  m_ParentPrefab: {fileID: 100100000, guid: 284db49ea7a664b18948c01d6f19b4ed, type: 3}
  m_IsPrefabParent: 0
--- !u!1001 &243712717
Prefab:
  m_ObjectHideFlags: 0
  serializedVersion: 2
  m_Modification:
    m_TransformParent: {fileID: 0}
    m_Modifications:
    - target: {fileID: 400000, guid: 284db49ea7a664b18948c01d6f19b4ed, type: 3}
      propertyPath: m_LocalPosition.x
      value: -0
      objectReference: {fileID: 0}
    - target: {fileID: 400000, guid: 284db49ea7a664b18948c01d6f19b4ed, type: 3}
      propertyPath: m_LocalPosition.y
      value: 0
      objectReference: {fileID: 0}
    - target: {fileID: 400000, guid: 284db49ea7a664b18948c01d6f19b4ed, type: 3}
      propertyPath: m_LocalPosition.z
      value: 0
      objectReference: {fileID: 0}
    - target: {fileID: 400000, guid: 284db49ea7a664b18948c01d6f19b4ed, type: 3}
      propertyPath: m_LocalRotation.x
      value: 0
      objectReference: {fileID: 0}
    - target: {fileID: 400000, guid: 284db49ea7a664b18948c01d6f19b4ed, type: 3}
      propertyPath: m_LocalRotation.y
      value: -0
      objectReference: {fileID: 0}
    - target: {fileID: 400000, guid: 284db49ea7a664b18948c01d6f19b4ed, type: 3}
      propertyPath: m_LocalRotation.z
      value: -0
      objectReference: {fileID: 0}
    - target: {fileID: 400000, guid: 284db49ea7a664b18948c01d6f19b4ed, type: 3}
      propertyPath: m_LocalRotation.w
      value: 1
      objectReference: {fileID: 0}
    - target: {fileID: 400000, guid: 284db49ea7a664b18948c01d6f19b4ed, type: 3}
      propertyPath: m_RootOrder
      value: 4
      objectReference: {fileID: 0}
    - target: {fileID: 100000, guid: 284db49ea7a664b18948c01d6f19b4ed, type: 3}
      propertyPath: m_Name
      value: Expo_LEFT
      objectReference: {fileID: 0}
    - target: {fileID: 2300002, guid: 284db49ea7a664b18948c01d6f19b4ed, type: 3}
      propertyPath: m_Materials.Array.data[0]
      value: 
      objectReference: {fileID: 2100000, guid: a105ec26c409e4d5c840d6b6873192bd, type: 2}
    - target: {fileID: 2300000, guid: 284db49ea7a664b18948c01d6f19b4ed, type: 3}
      propertyPath: m_Materials.Array.data[0]
      value: 
      objectReference: {fileID: 2100000, guid: a105ec26c409e4d5c840d6b6873192bd, type: 2}
    - target: {fileID: 100000, guid: 284db49ea7a664b18948c01d6f19b4ed, type: 3}
      propertyPath: m_IsActive
      value: 1
      objectReference: {fileID: 0}
    - target: {fileID: 100006, guid: 284db49ea7a664b18948c01d6f19b4ed, type: 3}
      propertyPath: m_Layer
      value: 8
      objectReference: {fileID: 0}
    - target: {fileID: 100008, guid: 284db49ea7a664b18948c01d6f19b4ed, type: 3}
      propertyPath: m_Layer
      value: 8
      objectReference: {fileID: 0}
    - target: {fileID: 100004, guid: 284db49ea7a664b18948c01d6f19b4ed, type: 3}
      propertyPath: m_Layer
      value: 8
      objectReference: {fileID: 0}
    - target: {fileID: 100002, guid: 284db49ea7a664b18948c01d6f19b4ed, type: 3}
      propertyPath: m_Layer
      value: 8
      objectReference: {fileID: 0}
    - target: {fileID: 100000, guid: 284db49ea7a664b18948c01d6f19b4ed, type: 3}
      propertyPath: m_Layer
      value: 8
      objectReference: {fileID: 0}
    - target: {fileID: 2300004, guid: 284db49ea7a664b18948c01d6f19b4ed, type: 3}
      propertyPath: m_Materials.Array.data[0]
      value: 
      objectReference: {fileID: 2100000, guid: 57e021c9875694bfc8c9cf45a0b3c001, type: 2}
    m_RemovedComponents: []
  m_ParentPrefab: {fileID: 100100000, guid: 284db49ea7a664b18948c01d6f19b4ed, type: 3}
  m_IsPrefabParent: 0
--- !u!1001 &286911902
Prefab:
  m_ObjectHideFlags: 0
  serializedVersion: 2
  m_Modification:
    m_TransformParent: {fileID: 0}
    m_Modifications:
    - target: {fileID: 4045956353606304, guid: 85729526e65994b628eee985061a6e9f, type: 2}
      propertyPath: m_LocalPosition.x
      value: -0.015099943
      objectReference: {fileID: 0}
    - target: {fileID: 4045956353606304, guid: 85729526e65994b628eee985061a6e9f, type: 2}
      propertyPath: m_LocalPosition.y
      value: 0.57904077
      objectReference: {fileID: 0}
    - target: {fileID: 4045956353606304, guid: 85729526e65994b628eee985061a6e9f, type: 2}
      propertyPath: m_LocalPosition.z
      value: 3.1492064
      objectReference: {fileID: 0}
    - target: {fileID: 4045956353606304, guid: 85729526e65994b628eee985061a6e9f, type: 2}
      propertyPath: m_LocalRotation.x
      value: 0
      objectReference: {fileID: 0}
    - target: {fileID: 4045956353606304, guid: 85729526e65994b628eee985061a6e9f, type: 2}
      propertyPath: m_LocalRotation.y
      value: 0
      objectReference: {fileID: 0}
    - target: {fileID: 4045956353606304, guid: 85729526e65994b628eee985061a6e9f, type: 2}
      propertyPath: m_LocalRotation.z
      value: 0
      objectReference: {fileID: 0}
    - target: {fileID: 4045956353606304, guid: 85729526e65994b628eee985061a6e9f, type: 2}
      propertyPath: m_LocalRotation.w
      value: 1
      objectReference: {fileID: 0}
    - target: {fileID: 4045956353606304, guid: 85729526e65994b628eee985061a6e9f, type: 2}
      propertyPath: m_RootOrder
      value: 7
      objectReference: {fileID: 0}
    m_RemovedComponents: []
  m_ParentPrefab: {fileID: 100100000, guid: 85729526e65994b628eee985061a6e9f, type: 2}
  m_IsPrefabParent: 0
--- !u!114 &506310517 stripped
MonoBehaviour:
  m_PrefabParentObject: {fileID: 114666153046327520, guid: 85729526e65994b628eee985061a6e9f,
    type: 2}
  m_PrefabInternal: {fileID: 286911902}
  m_Script: {fileID: 11500000, guid: a15247ab08a04d11905899510a83f481, type: 3}
--- !u!1001 &1246410545
Prefab:
  m_ObjectHideFlags: 0
  serializedVersion: 2
  m_Modification:
    m_TransformParent: {fileID: 0}
    m_Modifications:
    - target: {fileID: 4406339548706964, guid: e6543a49f598b47cb8381b884db5fc2e, type: 2}
      propertyPath: m_LocalPosition.x
      value: 0
      objectReference: {fileID: 0}
    - target: {fileID: 4406339548706964, guid: e6543a49f598b47cb8381b884db5fc2e, type: 2}
      propertyPath: m_LocalPosition.y
      value: 0
      objectReference: {fileID: 0}
    - target: {fileID: 4406339548706964, guid: e6543a49f598b47cb8381b884db5fc2e, type: 2}
      propertyPath: m_LocalPosition.z
      value: 0
      objectReference: {fileID: 0}
    - target: {fileID: 4406339548706964, guid: e6543a49f598b47cb8381b884db5fc2e, type: 2}
      propertyPath: m_LocalRotation.x
      value: 0
      objectReference: {fileID: 0}
    - target: {fileID: 4406339548706964, guid: e6543a49f598b47cb8381b884db5fc2e, type: 2}
      propertyPath: m_LocalRotation.y
      value: 0
      objectReference: {fileID: 0}
    - target: {fileID: 4406339548706964, guid: e6543a49f598b47cb8381b884db5fc2e, type: 2}
      propertyPath: m_LocalRotation.z
      value: 0
      objectReference: {fileID: 0}
    - target: {fileID: 4406339548706964, guid: e6543a49f598b47cb8381b884db5fc2e, type: 2}
      propertyPath: m_LocalRotation.w
      value: 1
      objectReference: {fileID: 0}
    - target: {fileID: 4406339548706964, guid: e6543a49f598b47cb8381b884db5fc2e, type: 2}
      propertyPath: m_RootOrder
      value: 2
      objectReference: {fileID: 0}
    m_RemovedComponents: []
  m_ParentPrefab: {fileID: 100100000, guid: e6543a49f598b47cb8381b884db5fc2e, type: 2}
  m_IsPrefabParent: 0
--- !u!1001 &1655461890
Prefab:
  m_ObjectHideFlags: 0
  serializedVersion: 2
  m_Modification:
    m_TransformParent: {fileID: 0}
    m_Modifications:
    - target: {fileID: 4076446774247396, guid: ba3d46ce3c4234dcf9c98476fc6cb1d9, type: 2}
      propertyPath: m_LocalPosition.x
      value: -1.2665707
      objectReference: {fileID: 0}
    - target: {fileID: 4076446774247396, guid: ba3d46ce3c4234dcf9c98476fc6cb1d9, type: 2}
      propertyPath: m_LocalPosition.y
      value: 0.45778036
      objectReference: {fileID: 0}
    - target: {fileID: 4076446774247396, guid: ba3d46ce3c4234dcf9c98476fc6cb1d9, type: 2}
      propertyPath: m_LocalPosition.z
      value: 6.0802555
      objectReference: {fileID: 0}
    - target: {fileID: 4076446774247396, guid: ba3d46ce3c4234dcf9c98476fc6cb1d9, type: 2}
      propertyPath: m_LocalRotation.x
      value: 0
      objectReference: {fileID: 0}
    - target: {fileID: 4076446774247396, guid: ba3d46ce3c4234dcf9c98476fc6cb1d9, type: 2}
      propertyPath: m_LocalRotation.y
      value: 0
      objectReference: {fileID: 0}
    - target: {fileID: 4076446774247396, guid: ba3d46ce3c4234dcf9c98476fc6cb1d9, type: 2}
      propertyPath: m_LocalRotation.z
      value: 0
      objectReference: {fileID: 0}
    - target: {fileID: 4076446774247396, guid: ba3d46ce3c4234dcf9c98476fc6cb1d9, type: 2}
      propertyPath: m_LocalRotation.w
      value: 1
      objectReference: {fileID: 0}
    - target: {fileID: 4076446774247396, guid: ba3d46ce3c4234dcf9c98476fc6cb1d9, type: 2}
      propertyPath: m_RootOrder
      value: 3
      objectReference: {fileID: 0}
    m_RemovedComponents: []
  m_ParentPrefab: {fileID: 100100000, guid: ba3d46ce3c4234dcf9c98476fc6cb1d9, type: 2}
  m_IsPrefabParent: 0
--- !u!1001 &1786170823
Prefab:
  m_ObjectHideFlags: 0
  serializedVersion: 2
  m_Modification:
    m_TransformParent: {fileID: 0}
    m_Modifications:
    - target: {fileID: 224144755641972514, guid: 8d0a3c5080f204248ab2506d239c7102,
        type: 2}
      propertyPath: m_RootOrder
      value: 1
      objectReference: {fileID: 0}
    - target: {fileID: 224144755641972514, guid: 8d0a3c5080f204248ab2506d239c7102,
        type: 2}
      propertyPath: m_LocalPosition.x
      value: 0
      objectReference: {fileID: 0}
    - target: {fileID: 224144755641972514, guid: 8d0a3c5080f204248ab2506d239c7102,
        type: 2}
      propertyPath: m_LocalPosition.y
      value: -1.55
      objectReference: {fileID: 0}
    - target: {fileID: 224144755641972514, guid: 8d0a3c5080f204248ab2506d239c7102,
        type: 2}
      propertyPath: m_LocalPosition.z
      value: 3.9
      objectReference: {fileID: 0}
    - target: {fileID: 224144755641972514, guid: 8d0a3c5080f204248ab2506d239c7102,
        type: 2}
      propertyPath: m_LocalRotation.x
      value: 0
      objectReference: {fileID: 0}
    - target: {fileID: 224144755641972514, guid: 8d0a3c5080f204248ab2506d239c7102,
        type: 2}
      propertyPath: m_LocalRotation.y
      value: 0
      objectReference: {fileID: 0}
    - target: {fileID: 224144755641972514, guid: 8d0a3c5080f204248ab2506d239c7102,
        type: 2}
      propertyPath: m_LocalRotation.z
      value: 0
      objectReference: {fileID: 0}
    - target: {fileID: 224144755641972514, guid: 8d0a3c5080f204248ab2506d239c7102,
        type: 2}
      propertyPath: m_LocalRotation.w
      value: 1
      objectReference: {fileID: 0}
    - target: {fileID: 224144755641972514, guid: 8d0a3c5080f204248ab2506d239c7102,
        type: 2}
      propertyPath: m_RootOrder
      value: 1
      objectReference: {fileID: 0}
    - target: {fileID: 224144755641972514, guid: 8d0a3c5080f204248ab2506d239c7102,
        type: 2}
      propertyPath: m_AnchoredPosition.x
      value: 0
      objectReference: {fileID: 0}
    - target: {fileID: 224144755641972514, guid: 8d0a3c5080f204248ab2506d239c7102,
        type: 2}
      propertyPath: m_AnchoredPosition.y
      value: -1.55
      objectReference: {fileID: 0}
    - target: {fileID: 224144755641972514, guid: 8d0a3c5080f204248ab2506d239c7102,
        type: 2}
      propertyPath: m_SizeDelta.x
      value: 0.493
      objectReference: {fileID: 0}
    - target: {fileID: 224144755641972514, guid: 8d0a3c5080f204248ab2506d239c7102,
        type: 2}
      propertyPath: m_SizeDelta.y
      value: 0.493
      objectReference: {fileID: 0}
    - target: {fileID: 224144755641972514, guid: 8d0a3c5080f204248ab2506d239c7102,
        type: 2}
      propertyPath: m_AnchorMin.x
      value: 0.5
      objectReference: {fileID: 0}
    - target: {fileID: 224144755641972514, guid: 8d0a3c5080f204248ab2506d239c7102,
        type: 2}
      propertyPath: m_AnchorMin.y
      value: 0.5
      objectReference: {fileID: 0}
    - target: {fileID: 224144755641972514, guid: 8d0a3c5080f204248ab2506d239c7102,
        type: 2}
      propertyPath: m_AnchorMax.x
      value: 0.5
      objectReference: {fileID: 0}
    - target: {fileID: 224144755641972514, guid: 8d0a3c5080f204248ab2506d239c7102,
        type: 2}
      propertyPath: m_AnchorMax.y
      value: 0.5
      objectReference: {fileID: 0}
    - target: {fileID: 224144755641972514, guid: 8d0a3c5080f204248ab2506d239c7102,
        type: 2}
      propertyPath: m_Pivot.x
      value: 0.5
      objectReference: {fileID: 0}
    - target: {fileID: 224144755641972514, guid: 8d0a3c5080f204248ab2506d239c7102,
        type: 2}
      propertyPath: m_Pivot.y
      value: 0.5
      objectReference: {fileID: 0}
    - target: {fileID: 224144755641972514, guid: 8d0a3c5080f204248ab2506d239c7102,
        type: 2}
      propertyPath: m_LocalEulerAnglesHint.x
      value: 0
      objectReference: {fileID: 0}
    - target: {fileID: 224144755641972514, guid: 8d0a3c5080f204248ab2506d239c7102,
        type: 2}
      propertyPath: m_LocalEulerAnglesHint.y
      value: 0
      objectReference: {fileID: 0}
    - target: {fileID: 114713724893352958, guid: 8d0a3c5080f204248ab2506d239c7102,
        type: 2}
      propertyPath: Method.m_PersistentCalls.m_Calls.Array.data[0].m_Target
      value: 
      objectReference: {fileID: 1903772749}
    - target: {fileID: 114713724893352958, guid: 8d0a3c5080f204248ab2506d239c7102,
        type: 2}
      propertyPath: Method.m_PersistentCalls.m_Calls.Array.data[0].m_MethodName
      value: ToggleAnim
      objectReference: {fileID: 0}
    - target: {fileID: 114995639152409472, guid: 8d0a3c5080f204248ab2506d239c7102,
        type: 2}
      propertyPath: m_FillAmount
      value: 0
      objectReference: {fileID: 0}
    - target: {fileID: 224257527716738552, guid: 8d0a3c5080f204248ab2506d239c7102,
        type: 2}
      propertyPath: m_LocalPosition.x
      value: -0.00000016391277
      objectReference: {fileID: 0}
    - target: {fileID: 224991569000927896, guid: 8d0a3c5080f204248ab2506d239c7102,
        type: 2}
      propertyPath: m_LocalPosition.x
      value: 0.00000047683716
      objectReference: {fileID: 0}
    - target: {fileID: 224830131110934550, guid: 8d0a3c5080f204248ab2506d239c7102,
        type: 2}
      propertyPath: m_LocalPosition.x
      value: -0.000091567636
      objectReference: {fileID: 0}
    - target: {fileID: 224830131110934550, guid: 8d0a3c5080f204248ab2506d239c7102,
        type: 2}
      propertyPath: m_LocalPosition.y
      value: 0.000000014901161
      objectReference: {fileID: 0}
    m_RemovedComponents: []
  m_ParentPrefab: {fileID: 100100000, guid: 8d0a3c5080f204248ab2506d239c7102, type: 2}
  m_IsPrefabParent: 0
--- !u!1001 &1829848938
Prefab:
  m_ObjectHideFlags: 0
  serializedVersion: 2
  m_Modification:
    m_TransformParent: {fileID: 0}
    m_Modifications:
    - target: {fileID: 224144755641972514, guid: 8d0a3c5080f204248ab2506d239c7102,
        type: 2}
      propertyPath: m_LocalPosition.x
      value: -37.23
      objectReference: {fileID: 0}
    - target: {fileID: 224144755641972514, guid: 8d0a3c5080f204248ab2506d239c7102,
        type: 2}
      propertyPath: m_LocalPosition.y
      value: -14.36
      objectReference: {fileID: 0}
    - target: {fileID: 224144755641972514, guid: 8d0a3c5080f204248ab2506d239c7102,
        type: 2}
      propertyPath: m_LocalPosition.z
      value: 3.36
      objectReference: {fileID: 0}
    - target: {fileID: 224144755641972514, guid: 8d0a3c5080f204248ab2506d239c7102,
        type: 2}
      propertyPath: m_LocalRotation.x
      value: 0
      objectReference: {fileID: 0}
    - target: {fileID: 224144755641972514, guid: 8d0a3c5080f204248ab2506d239c7102,
        type: 2}
      propertyPath: m_LocalRotation.y
      value: -0.7071068
      objectReference: {fileID: 0}
    - target: {fileID: 224144755641972514, guid: 8d0a3c5080f204248ab2506d239c7102,
        type: 2}
      propertyPath: m_LocalRotation.z
      value: 0
      objectReference: {fileID: 0}
    - target: {fileID: 224144755641972514, guid: 8d0a3c5080f204248ab2506d239c7102,
        type: 2}
      propertyPath: m_LocalRotation.w
      value: 0.7071068
      objectReference: {fileID: 0}
    - target: {fileID: 224144755641972514, guid: 8d0a3c5080f204248ab2506d239c7102,
        type: 2}
      propertyPath: m_RootOrder
      value: 6
      objectReference: {fileID: 0}
    - target: {fileID: 224144755641972514, guid: 8d0a3c5080f204248ab2506d239c7102,
        type: 2}
      propertyPath: m_AnchoredPosition.x
      value: -37.23
      objectReference: {fileID: 0}
    - target: {fileID: 224144755641972514, guid: 8d0a3c5080f204248ab2506d239c7102,
        type: 2}
      propertyPath: m_AnchoredPosition.y
      value: -14.36
      objectReference: {fileID: 0}
    - target: {fileID: 224144755641972514, guid: 8d0a3c5080f204248ab2506d239c7102,
        type: 2}
      propertyPath: m_SizeDelta.x
      value: 18.81
      objectReference: {fileID: 0}
    - target: {fileID: 224144755641972514, guid: 8d0a3c5080f204248ab2506d239c7102,
        type: 2}
      propertyPath: m_SizeDelta.y
      value: 18.81
      objectReference: {fileID: 0}
    - target: {fileID: 224144755641972514, guid: 8d0a3c5080f204248ab2506d239c7102,
        type: 2}
      propertyPath: m_AnchorMin.x
      value: 0.5
      objectReference: {fileID: 0}
    - target: {fileID: 224144755641972514, guid: 8d0a3c5080f204248ab2506d239c7102,
        type: 2}
      propertyPath: m_AnchorMin.y
      value: 0.5
      objectReference: {fileID: 0}
    - target: {fileID: 224144755641972514, guid: 8d0a3c5080f204248ab2506d239c7102,
        type: 2}
      propertyPath: m_AnchorMax.x
      value: 0.5
      objectReference: {fileID: 0}
    - target: {fileID: 224144755641972514, guid: 8d0a3c5080f204248ab2506d239c7102,
        type: 2}
      propertyPath: m_AnchorMax.y
      value: 0.5
      objectReference: {fileID: 0}
    - target: {fileID: 224144755641972514, guid: 8d0a3c5080f204248ab2506d239c7102,
        type: 2}
      propertyPath: m_Pivot.x
      value: 0.5
      objectReference: {fileID: 0}
    - target: {fileID: 224144755641972514, guid: 8d0a3c5080f204248ab2506d239c7102,
        type: 2}
      propertyPath: m_Pivot.y
      value: 0.5
      objectReference: {fileID: 0}
    - target: {fileID: 1314207244615550, guid: 8d0a3c5080f204248ab2506d239c7102, type: 2}
      propertyPath: m_Name
      value: BACK (1)
      objectReference: {fileID: 0}
    - target: {fileID: 224144755641972514, guid: 8d0a3c5080f204248ab2506d239c7102,
        type: 2}
      propertyPath: m_LocalScale.x
      value: 0.38670957
      objectReference: {fileID: 0}
    - target: {fileID: 224144755641972514, guid: 8d0a3c5080f204248ab2506d239c7102,
        type: 2}
      propertyPath: m_LocalScale.y
      value: 0.38670957
      objectReference: {fileID: 0}
    - target: {fileID: 224144755641972514, guid: 8d0a3c5080f204248ab2506d239c7102,
        type: 2}
      propertyPath: m_LocalScale.z
      value: 0.38670957
      objectReference: {fileID: 0}
    - target: {fileID: 114713724893352958, guid: 8d0a3c5080f204248ab2506d239c7102,
        type: 2}
      propertyPath: Method.m_PersistentCalls.m_Calls.Array.data[0].m_Target
      value: 
      objectReference: {fileID: 506310517}
    - target: {fileID: 114713724893352958, guid: 8d0a3c5080f204248ab2506d239c7102,
        type: 2}
      propertyPath: Method.m_PersistentCalls.m_Calls.Array.data[0].m_MethodName
      value: GoToScence
      objectReference: {fileID: 0}
    - target: {fileID: 114713724893352958, guid: 8d0a3c5080f204248ab2506d239c7102,
        type: 2}
      propertyPath: Method.m_PersistentCalls.m_Calls.Array.data[0].m_Mode
      value: 5
      objectReference: {fileID: 0}
    - target: {fileID: 114713724893352958, guid: 8d0a3c5080f204248ab2506d239c7102,
        type: 2}
      propertyPath: Method.m_PersistentCalls.m_Calls.Array.data[0].m_Arguments.m_StringArgument
      value: TOWER
      objectReference: {fileID: 0}
    m_RemovedComponents: []
  m_ParentPrefab: {fileID: 100100000, guid: 8d0a3c5080f204248ab2506d239c7102, type: 2}
  m_IsPrefabParent: 0
--- !u!1 &1903772746
GameObject:
  m_ObjectHideFlags: 0
  m_PrefabParentObject: {fileID: 0}
  m_PrefabInternal: {fileID: 0}
  serializedVersion: 5
  m_Component:
  - component: {fileID: 1903772747}
  - component: {fileID: 1903772749}
  m_Layer: 0
  m_Name: __TURBINEANIMATION_LEFT
  m_TagString: Untagged
  m_Icon: {fileID: 0}
  m_NavMeshLayer: 0
  m_StaticEditorFlags: 0
  m_IsActive: 1
--- !u!4 &1903772747
Transform:
  m_ObjectHideFlags: 0
  m_PrefabParentObject: {fileID: 0}
  m_PrefabInternal: {fileID: 0}
  m_GameObject: {fileID: 1903772746}
  m_LocalRotation: {x: 0, y: 0, z: 0, w: 1}
  m_LocalPosition: {x: 2.7885463, y: 0.9747429, z: -2.9089358}
  m_LocalScale: {x: 1, y: 1, z: 1}
  m_Children: []
  m_Father: {fileID: 0}
  m_RootOrder: 0
  m_LocalEulerAnglesHint: {x: 0, y: 0, z: 0}
--- !u!114 &1903772749
MonoBehaviour:
  m_ObjectHideFlags: 0
  m_PrefabParentObject: {fileID: 0}
  m_PrefabInternal: {fileID: 0}
  m_GameObject: {fileID: 1903772746}
  m_Enabled: 1
  m_EditorHideFlags: 0
  m_Script: {fileID: 11500000, guid: f2c0c954a5b944f11992741ce9b79f95, type: 3}
  m_Name: 
  m_EditorClassIdentifier: 
  TexturesAnim:
  - {fileID: 2800000, guid: a8d1ced326b646cebf888e6492e4fe1b, type: 3}
  - {fileID: 2800000, guid: 90b049dd440848e9b4bdd2e30e5dbf2b, type: 3}
  - {fileID: 2800000, guid: 4ce5e3d2e066433eabe63a10047587ba, type: 3}
  - {fileID: 2800000, guid: d0cfa9a4f04e40588289c523a106798d, type: 3}
  - {fileID: 2800000, guid: bd83970ac28d4b71a80ea293643ab2a9, type: 3}
  - {fileID: 2800000, guid: 0869b3fd9a8c43ff9ed2b1c50a88718c, type: 3}
  - {fileID: 2800000, guid: 5a6af012230049419e8b9d31fd3a69fe, type: 3}
  - {fileID: 2800000, guid: 713efb8dd684413ebba8fce82c68331a, type: 3}
  - {fileID: 2800000, guid: 4055d97cf3384129bd05d5228f02c8de, type: 3}
  - {fileID: 2800000, guid: 3518f62226d64a5996db58e396aba1b4, type: 3}
  - {fileID: 2800000, guid: e050e2917cab422eb2984d5920ce8d9a, type: 3}
  - {fileID: 2800000, guid: 68238954decd41d6ba718177acb87993, type: 3}
  - {fileID: 2800000, guid: cd25d6979a6b40d997875f87a0ae02b7, type: 3}
  - {fileID: 2800000, guid: e3f57f13683941279c9ef7cae1bcb2e4, type: 3}
  - {fileID: 2800000, guid: 1122bc20ad6a4afe901db810453531d6, type: 3}
  - {fileID: 2800000, guid: 44b7c4cde19c4ed5aa4854e769622784, type: 3}
  - {fileID: 2800000, guid: a5624efc6772490b9efe69f0e632ef1c, type: 3}
  - {fileID: 2800000, guid: bb520bf0a418454fbf082eb1e90212df, type: 3}
  - {fileID: 2800000, guid: e30b76e81a4c4b05b3316c9a9c8bcf07, type: 3}
  - {fileID: 2800000, guid: 650d2aa93e2e458da079c20de75fcff3, type: 3}
  - {fileID: 2800000, guid: b463c9e5c7b64cf5999346b66224acf8, type: 3}
  - {fileID: 2800000, guid: d69ed31d659f422fb36e45ed1371fa2f, type: 3}
  - {fileID: 2800000, guid: c32d6e5d23f44745861cde3b3f43b551, type: 3}
  - {fileID: 2800000, guid: ab9fbeddc6474afd892690b85d67a48e, type: 3}
  - {fileID: 2800000, guid: 2ce3d2e8d5e840da84ce33032b22560c, type: 3}
  - {fileID: 2800000, guid: 9e2bd72b9d404b43aa6fc9e27181609d, type: 3}
  - {fileID: 2800000, guid: efc9112219764037813c94a396f6130d, type: 3}
  - {fileID: 2800000, guid: 6a2da914329e4c3c92b42f25971b5588, type: 3}
  - {fileID: 2800000, guid: 59c48760f3c9461fb06c3ae36fece571, type: 3}
  - {fileID: 2800000, guid: 495d497364e74b0c88860a265bf71ac6, type: 3}
  - {fileID: 2800000, guid: 83281f669c564a37b5a7886ad4f7e3b7, type: 3}
  - {fileID: 2800000, guid: 619e6fb92c324b96bc477e90165546d7, type: 3}
  - {fileID: 2800000, guid: 0d96f60ab5d14804ad82d80fa1c9d96f, type: 3}
  - {fileID: 2800000, guid: f1589523c3ff47e383c26be7756034b8, type: 3}
  - {fileID: 2800000, guid: 5eeb21dc1f59413fbf85f8b8cb056700, type: 3}
  - {fileID: 2800000, guid: 0c8087167ccb43f3a0cbaf0aee63d3de, type: 3}
  - {fileID: 2800000, guid: e46fca9ba2a8498eb0f01a2d75022936, type: 3}
  - {fileID: 2800000, guid: d666f551c125435fb6c8604a8c673992, type: 3}
  - {fileID: 2800000, guid: bc65fe2fda004292a0c0a9868601e0de, type: 3}
  - {fileID: 2800000, guid: 03357187cdce4b04a5d7db021ee27df0, type: 3}
  - {fileID: 2800000, guid: 95cb451ec6b54fbeac4d5564ece19113, type: 3}
  - {fileID: 2800000, guid: 479873c89d78459abc59bbb4182703e4, type: 3}
  - {fileID: 2800000, guid: 12285f2d0ec54e38a63722a9feb7a618, type: 3}
  - {fileID: 2800000, guid: 9d5602258a7d47ac9872da7900ac9279, type: 3}
  - {fileID: 2800000, guid: 4f5d6d7ed87246e390906ddb5017dc4c, type: 3}
  - {fileID: 2800000, guid: 68df6244a49c47069414bd52d5271879, type: 3}
  - {fileID: 2800000, guid: 91b92a6a9f5b4266a0cd71d6b09f5bb4, type: 3}
  - {fileID: 2800000, guid: df7d26217bfc4ce1bada55c2bf2de41c, type: 3}
  AnimMat_Left: {fileID: 2100000, guid: 57e021c9875694bfc8c9cf45a0b3c001, type: 2}
  AnimMat_Right: {fileID: 2100000, guid: 73f704906c15b412e80a7925b1fc1bc7, type: 2}
